{
    "KPlugin": {
        "Description": "Watch for messages from local users sent with write(1) or wall(1)",
        "Description[ar]": "يراقب رسائل المستخدمين المحليين المرسلة بِـ wall(1) أو write(1).",
        "Description[bg]": "Наблюдение за съобщения от локални потребители, изпратени с write(1) или wall(1)",
        "Description[ca@valencia]": "Vigila els missatges dels usuaris locals enviats amb write(1) o wall(1)",
        "Description[ca]": "Vigila els missatges dels usuaris locals enviats amb write(1) o wall(1)",
        "Description[cs]": "Sledování zpráv od místních uživatelů poslaných pomocí write(1) nebo wall(1)",
        "Description[da]": "Hold øje med beskeder fra lokale brugere som sendes med write(1) eller wall(1)",
        "Description[de]": "Meldungen lokaler Benutzer überwachen, die mittels write(1) oder wall(1) gesendet werden",
        "Description[el]": "Έλεγχος μηνυμάτων από τοπικούς χρήστες που στάλθηκαν με write(1) η wall(1)",
        "Description[en_GB]": "Watch for messages from local users sent with write(1) or wall(1)",
        "Description[es]": "Esperar mensajes de usuarios locales enviados con write(1) o wall(1)",
        "Description[et]": "Jälgib kohalike kasutajate write(1) või wall(1) abil saadetud teateid",
        "Description[eu]": "Begiratu erabiltzaile lokalek write(1) edo wall(1) erabiliz bidalitako mezu bila",
        "Description[fi]": "Seuraa viestejä, joita paikalliset käyttäjät lähettävät write(1) tai wall(1) -komennoilla",
        "Description[fr]": "Surveille les messages des utilisateurs locaux envoyés avec write(1) ou wall(1)",
        "Description[gl]": "Vixiar as mensaxes de usuarios locais enviadas con write(1) ou wall(1).",
        "Description[hi]": "स्थानीय उपयोक्ताओं द्वारा राइट(1) या वाल(1) के जरिए भेजे गए संदेशों के लिए देखें",
        "Description[hu]": "A helyi felhasználók által write(1)-tal vagy wall(1)-lal küldött üzenetek figyelése",
        "Description[ia]": "Vigila super messages ex usatores local inviate con write(1) o wall(1)",
        "Description[id]": "Awasi pesan dari pengguna lokal yang dikirim dengan write(1) atau wall(1)",
        "Description[it]": "Monitora i messaggi inviati tramite write(1) o wall(1) dagli utenti locali",
        "Description[ka]": "ლოკალური მომხმარებლების მიერ write(1) და wall(1)-ით გაგზავნილი შეტყობინებების ნახვა",
        "Description[ko]": "write(1)이나 wall(1)을 통해 사용자가 보낸 메시지 감시하기",
        "Description[lt]": "Stebėti vietinių naudotojų išsiųstus pranešimus naudojant write(1) arba wall(1)",
        "Description[nl]": "Observeer berichten van lokale gebruikers verzonden met write(1) of wall(1)",
        "Description[nn]": "Sjå etter meldingar frå lokale brukarar sende med write(1) eller wall(1)",
        "Description[pl]": "Śledzi wiadomości od użytkowników lokalnych wysyłane za pomocą write(1) lub wall(1)",
        "Description[pt]": "Vigia as mensagens dos utilizadores locais enviadas com o write(1) ou o wall(1)",
        "Description[pt_BR]": "Monitora as mensagens dos usuários locais, enviadas com o write(1) ou o wall(1)",
        "Description[ro]": "Așteaptă mesaje de la utilizatori, trimise cu write(1) sau wall(1)",
        "Description[ru]": "Следит за сообщениями, отправляемыми локальными пользователями командами write(1) и wall(1)",
        "Description[sk]": "Sledovanie správ od lokálnych užívateľov poslaných pomocou príkazu write (1) alebo wall (1)",
        "Description[sl]": "Opazuje sporočila od krajevnih uporabnikov, poslanih z write(1) ali wall(1)",
        "Description[sr@ijekavian]": "Пази на поруке од локалних корисника послатих наредбама write(1) или wall(1)",
        "Description[sr@ijekavianlatin]": "Pazi na poruke od lokalnih korisnika poslatih naredbama write(1) ili wall(1)",
        "Description[sr@latin]": "Pazi na poruke od lokalnih korisnika poslatih naredbama write(1) ili wall(1)",
        "Description[sr]": "Пази на поруке од локалних корисника послатих наредбама write(1) или wall(1)",
        "Description[sv]": "Titta efter meddelanden från lokala användare som skickas med write(1) eller wall(1)",
        "Description[ta]": "write(1) அல்லது wall(1) கட்டளைகளை கொண்டு வட்டார பயனர்கள் அனுப்பும் தகவல்களுக்காக காத்திருக்கும்",
        "Description[tg]": "Дидани паёмҳои исролшуда бо қиматҳои write(1) ё wall(1) аз корбарони маҳаллӣ",
        "Description[tr]": "write(1) veya wall(1) ile gönderilen yerel kullanıcılardan gelen iletileri izle",
        "Description[uk]": "Спостереження за  повідомленнями від локальних користувачів, відісланих через write(1) або wall(1)",
        "Description[vi]": "Trực chờ thông điệp từ những người dùng cục bộ, mà được gửi bằng write(1) hoặc wall(1)",
        "Description[x-test]": "xxWatch for messages from local users sent with write(1) or wall(1)xx",
        "Description[zh_CN]": "监视本地用户使用 write(1) 或 wall(1) 发送的消息",
        "Description[zh_TW]": "監控本地使用者以 write(1) 或 wall(1) 傳送的訊息",
        "Name": "Write Daemon",
        "Name[ar]": "عفريت الكتابة",
        "Name[bg]": "Демон за писане",
        "Name[ca@valencia]": "Dimoni d'escriptura",
        "Name[ca]": "Dimoni d'escriptura",
        "Name[cs]": "Zapisovací démon",
        "Name[da]": "Write-dæmon",
        "Name[de]": "„Write“-Dienst",
        "Name[el]": "Δαίμονας Write",
        "Name[en_GB]": "Write Daemon",
        "Name[es]": "Demonio de «write»",
        "Name[et]": "Write-deemon",
        "Name[eu]": "Idazteko daimona",
        "Name[fi]": "Kirjoitustaustaprosessi",
        "Name[fr]": "Démon d'écriture",
        "Name[gl]": "Servizo de escritura",
        "Name[hi]": "राइट डेमन",
        "Name[hu]": "Write démon",
        "Name[ia]": "Demone Write (pro scriber)",
        "Name[id]": "Daemon Write",
        "Name[it]": "Demone di write",
        "Name[ka]": "KDE Write დემონი",
        "Name[ko]": "Write 데몬",
        "Name[lt]": "Rašymo tarnyba",
        "Name[nl]": "Write-daemon",
        "Name[nn]": "Skriveteneste",
        "Name[pl]": "Usługa zapisu",
        "Name[pt]": "Servidor do Write",
        "Name[pt_BR]": "Servidor do Write",
        "Name[ro]": "Demon „write”",
        "Name[ru]": "Служба локальных сообщений",
        "Name[sk]": "Démon príkazu write",
        "Name[sl]": "Ozadnji program za pisanje",
        "Name[sr@ijekavian]": "Демон за поруке",
        "Name[sr@ijekavianlatin]": "Demon za poruke",
        "Name[sr@latin]": "Demon za poruke",
        "Name[sr]": "Демон за поруке",
        "Name[sv]": "Skrivdemon",
        "Name[ta]": "Write பின்னணி சேவை",
        "Name[tg]": "Раванди дохилии навишт",
        "Name[tr]": "Yazma Ardalan Süreci",
        "Name[uk]": "Фонова служба запису",
        "Name[vi]": "Trình nền Write",
        "Name[x-test]": "xxWrite Daemonxx",
        "Name[zh_CN]": "Write 守护进程",
        "Name[zh_TW]": "Write 伺服程式"
    },
    "X-KDE-Kded-autoload": true,
    "X-KDE-Kded-load-on-demand": true
}
